{
  "info" : {
    "version" : 1,
    "author" : "xcode"
  },
  "colors" : [
    {
      "idiom" : "universal",
      "color" : {
        "color-space" : "srgb",
        "components" : {
          "red" : "0x4F",
          "alpha" : "1.000",
          "blue" : "0x67",
          "green" : "0x63"
        }
      }
    }
  ]
}